{
  // Server authentication info
  "servers": [
    {
      "host": "178.62.99.159",
      "username": "root",
      "password": "Dude2016!",
      // or pem file (ssh based authentication)
      // WARNING: Keys protected by a passphrase are not supported
      //"pem": "~/.ssh/id_rsa"
      // Also, for non-standard ssh port use this
      //"sshOptions": { "port" : 49154 },
      // server specific environment variables
      "env": {}
    }
  ],


  // Install MongoDB on the server. Does not destroy the local MongoDB on future setups
  "setupMongo": true,

  // Application name (no spaces).
  "appName": "memoz",

  // Location of app (local directory). This can reference '~' as the users home directory.
  // i.e., "app": "~/Meteor/my-app",
  // This is the same as the line below.
  "app": ".",

  // Configure environment
  // ROOT_URL must be set to your correct domain (https or http)
  "env": {
    "PORT": 8080,
    "ROOT_URL": "http://memoz.lombardstreet.io"
  },
  //"meteor": {
   //  "dockerImage": "abernix/meteord:base"
   //},
  // Meteor Up checks if the app comes online just after the deployment.
  // Before mup checks that, it will wait for the number of seconds configured below.
  "deployCheckWaitTime": 180,

  // show a progress bar while uploading.
  // Make it false when you deploy using a CI box.
  "enableUploadProgressBar": true
}
